<?xml version="1.0" standalone="no"?>
<!DOCTYPE svg PUBLIC "-//W3C//DTD SVG 1.1//EN" "http://www.w3.org/Graphics/SVG/1.1/DTD/svg11.dtd">
<svg xmlns="http://www.w3.org/2000/svg">
<metadata>Copyright (C) 2012 by original authors @ fontello.com</metadata>
<defs>
<font id="socialicons" horiz-adv-x="1000" >
<font-face font-family="socialicons" font-weight="400" font-stretch="normal" units-per-em="1000" ascent="850" descent="-150" />
<missing-glyph horiz-adv-x="1000" />
<glyph glyph-name="mail" unicode="&#xe811;" d="M929 11l0 429q-18-20-39-37-150-115-238-189-28-24-46-37t-48-27-57-14l-1 0q-27 0-57 14t-48 27-46 37q-88 74-238 189-21 17-39 37l0-429q0-7 5-13t13-5l821 0q7 0 13 5t5 13z m0 586l0 14t0 7-2 7-3 5-5 4-8 1l-821 0q-7 0-13-5t-5-13q0-94 82-158 108-85 224-177 3-3 20-16t26-21 25-18 28-15 24-5l1 0q11 0 24 5t28 15 25 18 26 21 20 16q116 92 224 177 30 24 56 64t26 73z m71 21l0-607q0-37-26-63t-63-26l-821 0q-37 0-63 26t-26 63l0 607q0 37 26 63t63 26l821 0q37 0 63-26t26-63z" horiz-adv-x="1000" />
<glyph glyph-name="edit" unicode="&#xe810;" d="M496 189l65 65-85 85-65-65 0-31 54 0 0-54 31 0z m246 402q-9 9-18-1l-195-195q-9-9-1-18t18 1l195 195q9 9 1 18z m45-331l0-106q0-66-47-114t-114-47l-464 0q-66 0-114 47t-47 114l0 464q0 66 47 114t114 47l464 0q35 0 65-14 8-4 10-13t-5-16l-27-27q-8-8-18-4-13 3-25 3l-464 0q-37 0-63-26t-26-63l0-464q0-37 26-63t63-26l464 0q37 0 63 26t26 63l0 70q0 7 5 12l36 36q8 8 20 4t11-16z m-54 412l161-161-375-375-161 0 0 161z m248-74l-51-51-161 161 51 51q16 16 38 16t38-16l85-85q16-16 16-38t-16-38z" horiz-adv-x="1000" />
<glyph glyph-name="location-circled" unicode="&#xe813;" d="M0 350q0 207 146 353t353 146 353-146 146-353-146-353-353-146-353 146-146 353z m250 82q0-82 35-129l215-283 215 283q35 47 35 129 0 104-73 176t-177 72-177-72-73-176z m145-1q0 44 31 74t74 30 74-30 31-74-31-74-74-30-74 30-31 74z" horiz-adv-x="1000" />
<glyph glyph-name="location" unicode="&#xe814;" d="M0 473q0 156 110 267t267 110 267-110 110-267q0-123-53-193l-324-430-324 430q-53 70-53 193z m219 0q0-66 46-112t112-46 112 46 46 112-46 112-112 46-112-46-46-112z" horiz-adv-x="754" />
<glyph glyph-name="location-1" unicode="&#xe816;" d="M711 725q121-120 121-290t-121-290l-295-290-294 290q-123 120-123 290t123 290 295 120 294-120z m-295-426q55 0 93 38 39 39 39 92t-39 92-93 39q-53 0-91-39t-39-92 39-92q38-38 91-38z" horiz-adv-x="833" />
<glyph glyph-name="behance" unicode="&#xe80d;" d="M0-150l0 1000 1000 0 0-1000-1000 0z m156 158l256 0q49 2 80 31 31 33 31 84 0 47-21 74-18 23-51 31l0 4q29 10 45 29 20 27 20 70-2 45-31 74-31 29-74 29l-254 0 0-428z m121 100l0 74 94 0q14-2 20-10 10-10 10-23l0-8q0-14-10-23-8-10-20-10l-94 0z m0 162l0 72 86 0q12 0 20-10t8-23l0-6q0-14-8-23t-20-10l-86 0z m250-98q0-43 12-76 12-31 34-53t54-32 72-11q78 2 117 35 41 33 41 92l-107 0q0-10-4-18-10-29-51-29-31 0-45 19t-14 54l221 0q0 62-12 98-10 31-31 53t-53 31-70 10q-37 0-67-11t-52-32-33-53-12-76z m74 193l189 0 0 70-189 0 0-70z m37-154q2 25 16 40t41 15q23 0 37-15t14-40l-107 0z" horiz-adv-x="1000" />
<glyph glyph-name="map" unicode="&#xe815;" d="M984 600q16-10 16-30l0-584q0-20-16-30-8-6-16-6t-18 6l-216 136-216-136q-18-10-34 0l-218 136-216-136q-16-10-34 0-16 10-16 30l0 584q0 20 16 30l234 146q18 10 34 0l216-136 218 136q16 10 32 0z m-750-450l0 506-168-104 0-506z m234-104l0 506-168 104 0-506z m234 104l0 506-170-104 0-506z m232-104l0 506-168 104 0-506z" horiz-adv-x="1000" />
<glyph glyph-name="soundcloud-circled" unicode="&#xe80c;" d="M0 350q0 95 37 182t100 150 150 100 182 37 182-37 150-100 100-150 37-182-37-182-100-150-150-100-182-37-182 37-150 100-100 150-37 182z m164-86q0-11 8-17t18-4q9 2 12 6t3 15l0 82q0 9-6 15t-15 6-15-6-6-15l0-82z m65-35q0-8 6-12t15-4q9 0 15 4t6 12l0 191q0 9-6 15t-15 6q-8 0-14-6t-6-15l0-191z m64-9q0-16 21-16 20 0 20 16l0 175q0 9-6 15t-14 6q-9 0-15-6t-6-15l0-175z m65-1q0-15 20-15 21 0 21 15l0 283q0 23-15 27-9 2-18-5t-9-22l0-283z m66-7q-1-6 5-8l245 0q40 0 68 28t28 68q0 40-28 68t-68 28q-18 0-37-8-5 65-54 109t-114 44q-20 0-38-4-9-3-9-18l0-306z" horiz-adv-x="937.5" />
<glyph glyph-name="phone-squared" unicode="&#xe805;" d="M714 184q0 6-1 9-2 4-21 16t-49 28l-30 16q-3 2-11 7t-14 8-12 3q-10 0-26-18t-32-37-25-18q-4 0-9 2t-9 4-9 5-8 5q-55 31-95 71t-71 95q-1 2-5 8t-5 9-4 9-2 9q0 7 11 19t25 21 25 22 11 20q0 6-3 12t-8 14-7 11q-2 3-8 16t-14 25-15 27-14 23-9 10-9 1q-27 0-56-12-26-12-45-53t-19-73q0-9 1-19t3-17 5-18 6-16 7-18 6-17q33-92 121-179t179-121q3-1 17-6t18-7 16-6 18-5 17-3 19-1q32 0 73 19t53 45q12 30 12 56z m143 434l0-536q0-66-47-114t-114-47l-536 0q-66 0-114 47t-47 114l0 536q0 66 47 114t114 47l536 0q66 0 114-47t47-114z" horiz-adv-x="857.143" />
<glyph glyph-name="github-circled" unicode="&#xe806;" d="M857 350q0-140-82-252t-211-155q-15-3-22 4t-7 17l0 118q0 54-29 79 32 3 57 10t52 22 45 37 30 59 11 84q0 68-44 115 21 51-4 114-16 5-45-6t-51-25l-21-13q-52 15-107 15t-107-15q-9 6-24 15t-47 21-48 8q-25-63-4-114-44-47-44-115 0-47 11-84t29-59 45-37 52-22 57-10q-22-20-27-57-12-6-25-8t-32-3-37 12-31 35q-11 18-27 29t-28 13l-11 2q-12 0-16-3t-3-6 5-8 7-7l4-3q12-6 24-21t18-28l6-13q7-21 25-34t37-17 39-4 31 2l13 2q0-21 0-50t0-30q0-10-7-17t-22-4q-129 43-211 155t-82 252q0 117 57 215t156 156 215 57 215-57 156-156 57-215z" horiz-adv-x="857.143" />
<glyph glyph-name="pinterest-circled" unicode="&#xe807;" d="M857 350q0-117-57-215t-156-156-215-57q-62 0-122 18 33 52 44 92 5 19 30 118 11-22 41-38t64-16q68 0 121 38t82 105 29 151q0 64-33 119t-96 91-142 35q-59 0-109-16t-86-43-61-62-37-72-12-75q0-58 22-102t65-62q17-7 21 11 1 4 4 17t4 17q3 13-6 24-28 34-28 84 0 84 58 145t153 61q84 0 131-46t47-119q0-95-38-161t-98-66q-34 0-55 24t-13 58q4 20 15 52t17 57 6 42q0 28-15 46t-43 18q-35 0-59-32t-24-79q0-41 14-68l-55-233q-9-39-7-99-115 51-186 157t-71 236q0 117 57 215t156 156 215 57 215-57 156-156 57-215z" horiz-adv-x="857.143" />
<glyph glyph-name="mail-alt" unicode="&#xe812;" d="M1000 454l0-443q0-37-26-63t-63-26l-821 0q-37 0-63 26t-26 63l0 443q25-27 56-49 202-137 277-193 32-23 52-37t53-27 61-14l1 0q28 0 61 14t53 27 52 37q95 69 278 193 32 22 56 49z m0 164q0-44-27-84t-68-69q-210-146-261-181-6-4-24-17t-30-21-29-18-32-15-28-5l-1 0q-13 0-28 5t-32 15-29 18-30 21-24 17q-51 36-146 102t-114 80q-35 23-65 64t-31 76q0 44 23 73t66 29l821 0q36 0 63-26t27-63z" horiz-adv-x="1000" />
<glyph glyph-name="instagramm" unicode="&#xe803;" d="M760 54l0 362-75 0q11-35 11-73 0-70-36-130t-97-94-134-35q-110 0-188 76t-78 183q0 38 11 73l-79 0 0-362q0-15 10-24t24-10l597 0q14 0 24 10t10 24z m-158 297q0 69-50 118t-122 49q-71 0-121-49t-50-118 50-118 121-49q71 0 122 49t50 118z m158 201l0 92q0 16-11 27t-27 11l-97 0q-16 0-27-11t-11-27l0-92q0-16 11-27t27-11l97 0q16 0 27 11t11 27z m97 116l0-637q0-45-32-78t-78-32l-637 0q-45 0-78 32t-32 78l0 637q0 45 32 78t78 32l637 0q45 0 78-32t32-78z" horiz-adv-x="857.143" />
<glyph glyph-name="flickr" unicode="&#xe809;" d="M696 779q66 0 114-47t47-114l0-536q0-66-47-114t-114-47l-536 0q-66 0-114 47t-47 114l0 536q0 66 47 114t114 47l536 0z m-307-429q0 49-35 84t-84 35-84-35-35-84 35-84 84-35 84 35 35 84z m315 0q0 49-35 84t-84 35-84-35-35-84 35-84 84-35 84 35 35 84z" horiz-adv-x="857.143" />
<glyph glyph-name="dribbble" unicode="&#xe804;" d="M571 13q-23 134-78 278l-1 0-1-1q-9-3-24-9t-56-27-76-46-73-64-57-83l-8 6q103-84 233-84 74 0 143 29z m-103 339q-12 27-30 62-174-52-376-52-1-4-1-12 0-69 25-132t69-112q28 50 69 93t80 69 73 45 56 27l21 7q2 1 7 2t7 3z m-60 118q-67 119-136 211-77-36-131-104t-71-152q169 0 338 45z m382-178q-117 33-228 16 49-133 71-262 62 42 103 106t54 140z m-449 413q-1 0-1-1 1 1 1 1z m329-81q-103 92-242 92-42 0-86-11 73-95 137-213 39 15 73 34t54 34 37 32 21 23z m124-271q-2 129-83 229l-1-1q-5-7-11-14t-24-25-40-34-56-36-73-36q14-30 25-53 1-3 4-10t4-9q20 3 42 4t41 1 39-1 36-2 32-3 27-4 20-3 14-3z m62-4q0-117-57-215t-156-156-215-57-215 57-156 156-57 215 57 215 156 156 215 57 215-57 156-156 57-215z" horiz-adv-x="857.143" />
<glyph glyph-name="facebook-rect" unicode="&#xe800;" d="M183 850c-101 0-183-81-183-183l0-635c0-101 81-183 183-183l344 0 0 391-103 0 0 141 103 0 0 120c0 94 61 181 202 181 57 0 99-5 99-5l-3-131s-43 0-90 0c-51 0-59-23-59-62l0-103 153 0-7-141-146 0 0-391 142 0c101 0 183 81 183 183l0 635c0 101-81 183-183 183l-635 0z" horiz-adv-x="1000" />
<glyph glyph-name="twitter-squared" unicode="&#xe801;" d="M714 510q-31-14-68-19 38 22 52 65-36-21-75-28-34 37-85 37-49 0-83-34t-34-83q0-16 3-27-72 4-135 36t-107 86q-16-28-16-59 0-64 51-98-26 1-56 15l0-1q0-42 28-74t69-40q-16-4-28-4-7 0-22 2 12-35 42-58t68-23q-65-50-146-50-15 0-28 2 83-52 180-52 62 0 117 20t94 53 67 76 42 90 14 94q0 10-1 15 35 25 59 61z m143 108l0-536q0-66-47-114t-114-47l-536 0q-66 0-114 47t-47 114l0 536q0 66 47 114t114 47l536 0q66 0 114-47t47-114z" horiz-adv-x="857.143" />
<glyph glyph-name="googleplus-rect" unicode="&#xe808;" d="M92 850c-51 0-92-26-92-92l0-79c4 4 8 7 12 11 83 69 174 80 250 81l307 0-82-66-89 0c36-31 89-86 89-185 0-108-57-159-118-207-19-19-41-39-41-72 0-32 22-50 38-63l52-41c64-54 147-116 147-217 0-27-3-51-12-72l354 0c51 0 92 28 92 79l0 581-184 0 0-186-79 0 0 186-184 0 0 77 184 0 0 184 79 0 0-184 184 0 0 171c0 66-41 92-92 92l-816 0z m908-263l0-77 1 0 0 77-1 0z m-813 135c-38 0-78-19-102-48-25-31-29-70-29-108 0-98 51-242 176-242 36 0 74 9 97 36 27 31 38 72 38 93 0 105-61 268-181 268z m-187-398l0-258c66 53 180 43 235 47-20 26-44 54-44 99 0 25 7 39 15 57-16-1-32-3-47-3-66 0-120 25-160 58z m251-252c-13 0-92-3-153-23-21-8-69-26-99-67l0-53c0-51 41-79 92-79l377 0c2 7 6 12 6 26-1 74-80 115-190 194-12 2-19 2-33 2z" horiz-adv-x="1001" />
<glyph glyph-name="vimeo-rect" unicode="&#xe80e;" d="M193 850c-107 0-193-86-193-193l0-614c0-107 86-193 193-193l614 0c107 0 193 86 193 193l0 614c0 107-86 193-193 193l-614 0z m517-197c3 0 6 0 9 0 74-2 108-50 104-143-3-69-52-165-146-285-97-126-180-189-247-189-42 0-77 38-106 115l-58 212c-21 77-44 115-69 115-5 0-24-11-56-34l-34 43c35 31 70 62 104 93 47 41 82 62 106 64 56 5 90-33 103-114 14-88 24-142 29-164 16-73 34-109 53-109 15 0 37 24 67 71s46 83 48 107c4 41-12 61-48 61-17 0-35-4-53-11 34 111 98 166 193 167z" horiz-adv-x="1000" />
<glyph glyph-name="lastfm-rect" unicode="&#xe80f;" d="M196 850c-108 0-196-88-196-196l0-608c0-108 88-196 196-196l608 0c108 0 196 88 196 196l0 608c0 108-88 196-196 196l-608 0z m89-253c135 0 204-49 246-181l34-102c24-74 67-128 170-128 69 0 106 15 106 53 0 30-17 51-69 63l-69 16c-84 20-118 64-118 133 0 111 90 146 181 146 104 0 167-38 175-129l-102-12c-4 44-31 62-79 62-45 0-72-20-72-55 0-31 13-49 58-59l65-14c88-20 134-63 134-146 0-102-85-140-212-140-176 0-237 79-270 178l-33 102c-24 74-53 132-142 132-62 0-125-45-125-170 0-98 50-159 120-159 79 0 132 59 132 59l33-89s-55-54-170-54c-142 0-222 83-222 238 0 161 79 255 229 255z" horiz-adv-x="1000" />
<glyph glyph-name="linkedin-rect" unicode="&#xe802;" d="M196 850c-108 0-196-88-196-196l0-608c0-108 88-196 196-196l608 0c108 0 196 88 196 196l0 608c0 108-88 196-196 196l-608 0z m49-165c52 0 83-34 84-78 0-44-33-78-85-78l-1 0c-51 0-83 35-83 78 0 45 34 78 85 78z m445-208c99 0 174-65 174-204l0-260-151 0 0 243c0 61-22 103-76 103-42 0-67-28-77-55-4-10-5-23-5-37l0-254-151 0s2 412 0 454l151 0 0-64c20 31 56 75 136 75z m-522-11l151 0 0-454-151 0 0 454z" horiz-adv-x="1000" />
<glyph glyph-name="rdio" unicode="&#xe80a;" d="M766 402q4-32 4-52 0-160-113-275t-273-115q-158 0-271 115t-113 275q0 162 112 276t272 114q52 0 90-10l0-222q-76 26-154-10-70-34-101-101t-5-129q26-60 95-79t139 15q52 26 87 80t35 122l0 286q16-8 24-14 174-108 310-114 32-2 4-52-42-76-130-106z" horiz-adv-x="921" />
<glyph glyph-name="spotify-circled" unicode="&#xe80b;" d="M480 830q198 0 339-140t141-340q0-120-56-224t-152-170q-108 186-338 192-176 6-296-114-118 138-118 316 0 200 140 340t340 140z m234-650q14 26-10 40-188 114-460 54-30-8-22-36 8-30 36-22 246 58 416-46 26-14 40 10z m58 136q18 34-12 50-110 68-256 85t-276-21q-34-10-24-46 10-34 46-26 112 34 244 19t228-73q32-20 50 12z m4 142q38-24 62 14 20 38-16 62-126 74-314 89t-306-27q-18-4-27-21t-3-33q6-18 22-27t34-3q102 36 271 23t277-77z m-364-454q130-4 186-118-60-16-118-16-126 0-234 62 66 74 166 72z" horiz-adv-x="960" />
</font>
</defs>
</svg>